{
	"title": "Watch your FavoUrite Movies for Free",
	".tl_title": "<span>Watch</span> your <span>Favourite Movies</span> for <span>Free</span>",
	".tl_no-account": "Don’t have an account?",
	".tl_sign-up-now": "Sign up now! It only takes 2 minutes to gain unlimited access.",
	".tl_step1": "1. Account info",
	".tl_step2": "2. Verification",
	".tl_step3": "3. Enjoy",
	".tl_create-free-account": "Please create a free account to access unlimited<br>streaming & downloads.",
	".tl_sign-up": "Sign up FOR FREE!",
	".tl_enter-email": "Please enter your Email to create an account:",
	".tl_continue": "Continue",
	".tl_accept-privacy": "We value your privacy. We will not sell or rent your email address to third parties.",
	".tl_content-title1": "Free, Unlimited Access",
	".tl_content-text1": "Unlimited access to all our content. Free. You’ll never be bored again.",
	".tl_content-title2": "Search for anything",
	".tl_content-text2": "UltraFLIX makes searching for specific titles easy. Whether its a new release or a classic, we’ve got you covered.",
	".tl_content-title3": "No Ads.",
	".tl_content-text3": "Nobody likes ads. Enjoy your films the way they were meant to be experienced: ad-free.",
	".tl_content-title4": "Download or stream from anywhere",
	".tl_content-text4": "Stream our complete library or download titles for on the go. You’re always covered.",
	".tl_content-title5": "All platforms",
	".tl_content-text5": "Be entertained anywhere, anytime. UltraFLIX is optimized for PC, Mac, Mobile and Smart TVs.",
	".tl_sub-title": "Join the movement",
	".tl_sub-content": "With a wide variety of titles, UltraFLIX is your number one entertainment resource. Join our legion of satisfied members and enjoy the hottest movies.",
	".tl_sub-content2": "<strong>It’s HERE and it’s FREE.</strong> Here’s why you should join:",
	".tl_content-title6": "<strong>UltraFLIX</strong> is mobile. Download or stream movies anywhere, anytime.",
	".tl_content-title7": "A wide variety of titles at your fingertips, spanning every genre imaginable.",
	".tl_content-title8": "<strong>New Content</strong> added frequently.",
	".tl_content-title9": "All platforms. Fully Optimized.",
	".tl_content-text9": "Find out why thousands of people are joining every day. Sign up now and experience unlimited entertainment!",
	".tl_start-watching": "Sign up. Start watching.",
	".tl_easy-sign-up": "Easy sign up process. Free Movies & Content. Continue and watch now!",
	".tl_unlimited-content": "Unlimited content.",
	".tl_wide-variety": "A wide variety of content, spanning every genre imaginable.",
	".tl_access-time": "Anytime, anywhere. Download instantly.",
	".tl_download-possibility": "High Speed Download. Unlimited Bandwidth. No ads. No Waiting. Your No.1 Media Site.",
	".tl_overview": "Overview",
	".tl_regular-membership": "Regular Membership <img src=\"img/stars.png\">",
	".tl_value": "Free",
	".tl_customer-reviews": "(based on 1,289,352 customer reviews)",
	".tl_total": "Total",
	".tl_terms-info": "<p class=\"title-terms\">Why do we ask you for your billing information?</p><p class=\"content-terms\">Because we are only licensed to distribute our content to certain countries, we ask that you verify your mailing address by providing us with a valid credit card number. We GUARANTEE that NO CHARGES will be applied for validating your account. No charges will appear on your credit card statement unless you upgrade to a Premium Membership or make a purchase.</p><p class=\"title-terms\">We provide you a SECURE Online Environment</p><p class=\"content-terms\">Unlike many companies on the Internet, we use encryption security technology. Our site employs Secure Sockets Layering (SSL) to encrypt your personal information such as credit card number, name, and address before it travels over the Internet. Your data is encrypted and password-protected, so no one ever sees your information.</p><p class=\"title-terms\">Never any Hidden Fees</p><p class=\"content-terms\">We make sure to provide our members with a detailed transaction history so that they know what they are paying for. Credit card information is required to facilitate future purchases only. No charges will appear on your credit card statement, unless you upgrade to Premium Membership or you make a purchase. By creating an account, you agree to get your full access to Premium Streaming Content for 3 days. At that point you will automatically become a member and will be billed a further {footer-currency} every month until you end your Membership. You can end your subscription at any point by contacting our Customer Support at cs@vod.creditsupport.info.</p>",
	".tl_your-information": "Your Information",
	".tl_validate-account": "Validate Account",
	".tl_cc-not-charged": "Your credit card will <strong>NOT BE CHARGED</strong> for validating your account.",
	".tl_cvv": "The CVV/CVC is a 3 digit code on the back of your card.",
	".tl_termsAccept": "I have read and accept the terms and conditions and privacy policy.",
	".tl_continue2": "Continue<img src=\"img/play.png\">",
	".tl_why-CC": "Why your credit card?",
	".tl_cc-terms": "We only license our content for certain countries. That's why we need to verify your geographical location using a valid bank card. Your membership for all of our contents is free unless you decide to switch to Premium mode at the end of the 3 days free membership.",
	".tl_footer": "The offer gives you full access to Premium Streaming Content for 3 days. At that point you will automatically become a member and will be billed a further {footer-currency} every month until you end your Membership. You can end your subscription at any point by contacting our Customer Support at cs@vod.creditsupport.info."
}
