{
	".tl_title": "Geben Sie bitte ihre E-Mail-Adresse ein",
	"#paymentMethods button[value=cardDataForm]": "Kreditkarte",
	"#paymentMethods button[value=sepaForm]": "SEPA",
	"#name:placeholder": "Vorname",
	"#surname:placeholder": "Nachname",
	"#address:placeholder": "Adresse",
	"#zipcode:placeholder": "Postleitzahl",
	"#city:placeholder": "Stadt",
	"#email:placeholder": "E-mail",
	".tl_age": "Ich bin über 18 Jahre alt und akzeptiere die Allgemeinen Geschäftsbedingungen.",
	"#submit-btn": "Fortfahren",
	".tl_completeOrder": "Bestellung abschließen",
	".tl_paymentOf": "Zahlung von {currency-value}",
	".cardOwner": "<strong>Name des Karteninhabers</strong>",
	"#cardOwner:placeholder": "Ihr Name",
	".cardNumber": "<strong>Kartennummer</strong>",
	"#cardNumber:placeholder": "1234 1234 1234 1234",
	".month-expiration": "<strong>Ablaufmonat</strong>",
	".year-expiration": "<strong>Ablaufjahr</strong>",
	"#cvv:placeholder": "000",
	".cvv": "<strong>CVC</strong>",
	"#pay-btn": "Zahl jetzt",
	".msisdn": "Telefonnummer",
	"#msisdn:placeholder": "Telefonnummer",
	"#sepaPinForm button[type=submit]": "PIN senden",
	".accountHolder": "Kontoinhaber",
	"#accountHolder:placeholder": "Kontoinhaber",
	".iban": "IBAN",
	"#iban:placeholder": "IBAN",
	".pin": "PIN",
	"#pin:placeholder": "PIN",
	"#sepaPayForm button[type=submit]": "Zahl jetzt",
	"#payment-success": "<strong>Vielen Dank für Ihre Bestellung!</strong><br>Sie erhalten innerhalb weniger Minuten eine E-Mail.<br>Sie werden nun weitergeleitet.",
	"#payment-error": "<strong>Error</strong><br>Ihre Zahlung wurde nicht bearbeitet.",
	"#step3 .tl_msgTitle": "Vielen Dank für Ihre Bestellung!",
	"#step3 .tl_msgText": "Sie erhalten innerhalb weniger Minuten eine E-Mail. Sie werden nun weitergeleitet.",
	"#step4 .tl_msgTitle": "Error",
	"#step4 .tl_msgText": "Ihre Zahlung wurde nicht bearbeitet.",
	"#step5 .tl_msgTitle": "3D-Sicherheit wurde nicht vollendet. Möchten Sie diesen Schritt übersprignen?",
	"#skipSecure": "Ja",
	"#dontSkipSecure": "Nein",
	"#step6 .tl_msgTitle": "Unerledigte Transaktion",
	"#step6 .tl_msgText": "Wenn die Transaktion erfolgreich ist, erhalten Sie Ihre Anmeldedaten",
	".footer": "<div class=\"container\"><div class=\"row\"><div class=\"col-12 col-md-3 mb-3\"><strong>Was ist das?</strong><br>Das ist nicht nur irgendein neues Spiel. Es wurde von Spielexperten entworfen und trainiert Ihren Geist, während es gleichzeitig Spaß macht. Stimulieren Sie Ihr Gehirn auf eine Art und Weise, die Sie nie für möglich gehalten hätten!</div><div class=\"col-12 col-md-3 mb-3\"><strong>Wie viel kostet das?</strong><br>Es ist ganz einfach, Ihre Mitgliedschaft zu kündigen. Die Mitgliedschaft hat eine Probezeit von 3 Tagen. Wird die Mitgliedschaft während der Probezeit nicht gekündigt, werden Ihnen alle 30 Tage {footer-currency} in Rechnung gestellt, bis Sie Ihre Mitgliedschaft kündigen.</div><div class=\"col-12 col-md-3 mb-3\"><strong>Wie gewinnt man?</strong><br>Alle Teilnehmer nehmen automatisch an einer Verlosung über den Preis teil. Wir verlosen einen neuen Gewinner pro 15.000 Teilnehmern. Der Gewinner wird von uns direkt kontaktiert, damit wir mit ihm die Zustellung des Preises absprechen können. Sollte das Produkt nicht vorrätig sein, erhält der Gewinner ein ähnliches Produkt.</div><div class=\"col-12 col-md-3 mb-3\"><strong>Noch Fragen?</strong><br>Wenn Sie Fragen haben oder Hilfe benötigen, stehen wir Ihnen von Montag bis Freitag zwischen 10:00 und 16:00 Uhr MEZ entweder unter der E-Mail-Adresse info@creditsupport.info (englischer Support).</div></div><style>.footer-terms-links { display: flex; justify-content: center; width: 100%; } .footer-terms-links a { margin: 2px 4px; color: #909090; text-decoration: none;}</style><div class=\"row footer-terms-links-container visible-on-step-2\" style=\"display: none;\"><div class=\"footer-terms-links\"><a href=\"terms/policy.html\" target=\"_blank\">Privacy policy</a><a href=\"terms/terms.html\" target=\"_blank\">Terms &amp; Conditions</a></div></div></div>"
}
