{
	".tl_title": "Please enter your email",
	"#name:placeholder": "Name",
	"#surname:placeholder": "Surname",
	"#address:placeholder": "Address",
	"#zipcode:placeholder": "ZIP code",
	"#city:placeholder": "City",
	"#email:placeholder": "Email",
	".tl_emailLabel": "Email",
	".tl_age": "I am over 18 and I have accepted the terms.",
	"#submit-btn": "Continue",
	".tl_completeOrder": "Complete the order",
	".tl_paymentOf": "Payment of {currency-value}",
	".cardOwner": "<strong>Name of Cardholder</strong>",
	"#cardOwner:placeholder": "Name",
	".cardNumber": "<strong>Card number</strong>",
	"#cardNumber:placeholder": "1234 1234 1234 1234",
	".month-expiration": "<strong>Month of expiration</strong>",
	".year-expiration": "<strong>Year of expiration</strong>",
	"#cvv:placeholder": "000",
	".cvv": "<strong>CVC</strong>",
	"#pay-btn": "Pay now",
	"#payment-success": "<strong>Thank you for your order!</strong><br>You will receive an email within a few minutes.<br>You will be redirected.",
	"#payment-error": "<strong>Error</strong><br>Your payment has not been processed.",
	"#step3 .tl_msgTitle": "Thank you for your order!",
	"#step3 .tl_msgText": "You will receive an email within a few minutes. You will be redirected.",
	"#step3 .tl_msgTextNoRedirect": "You will receive an email within a few minutes.",
	"#step4 .tl_msgTitle": "Error",
	"#step4 .tl_msgText": "Your payment has not been processed.",
	"#step5 .tl_msgTitle": "3D secure wasn't completed. Proceed to skip this step?",
	"#skipSecure": "Yes",
	"#dontSkipSecure": "No",
	"#step6 .tl_msgTitle": "Pending transaction",
	"#step6 .tl_msgText": "If the transaction is successful, you will receive your login details.",
	".footer": "<div class=\"container\"><div class=\"row\"><div class=\"col-12 col-md-3 mb-3\"><strong>What is this?</strong><br>This is not just another game. Designed by game experts, it trains your mind while having fun at the same time. Improve your brain in ways you never thought possible!</div><div class=\"col-12 col-md-3 mb-3\"><strong>How much does it cost?</strong><br>It\"s easy to cancel your membership. Membership has a trial period of 3 days, if membership is not terminated during the trial period, you will be billed {footer-currency} (depending on the product) every 30 days until you cancel your membership.</div><div class=\"col-12 col-md-3 mb-3\"><strong>How do you win?</strong><br>All participants automatically participate in a draw about the prize. We will draw a new winner per 15,000 participants. The winner will be contacted directly to arrange the delivery of the prize. If the product is out of stock, the winner will receive a similar product.</div><div class=\"col-12 col-md-3 mb-3\"><strong>Questions?</strong><br>If you have any questions or need help, we are ready to assist you at info@creditsupport.info (English Support) 10:00 to 16:00 CET Monday to Friday.</div></div><style>.footer-terms-links { display: flex; justify-content: center; width: 100%; } .footer-terms-links a { margin: 2px 4px; color: #909090; text-decoration: none;}</style><div class=\"row footer-terms-links-container visible-on-step-2\" style=\"display: none;\"><div class=\"footer-terms-links\"><a href=\"terms/policy.html\" target=\"_blank\">Privacy policy</a><a href=\"terms/terms.html\" target=\"_blank\">Terms &amp; Conditions</a></div></div></div>",
	".tl_terms_links": "<div class=\"terms-links show-on-step-2\" style=\"display: none;\"><a href=\"terms/policy.html\" target=\"_blank\">Privacy policy</a><a href=\"terms/terms.html\" target=\"_blank\">Terms & Conditions</a></div>"
}
