{
	".tl_title": "Per favore inserisci la tua email",
	".tl_emailLabal": "Email",
	"#name:placeholder": "Cognome",
	"#surname:placeholder": "Nome",
	"#address:placeholder": "Indirizzo",
	"#zipcode:placeholder": "Codice Postale",
	"#city:placeholder": "Città",
	"#email:placeholder": "E-mail",
	".tl_age": "Ho più di 18 anni e ho accettato i termini.",
	"#submit-btn": "Continua",
	".tl_completeOrder": " ",
	".tl_paymentOf": "Pagamento di {currency-value}",
	".cardOwner": "<strong>Nome della carta di credito</strong>",
	"#cardOwner:placeholder": "Nome e cognome",
	".cardNumber": "<strong>Numero carta</strong>",
	"#cardNumber:placeholder": "1234 1234 1234 1234",
	".month-expiration": "<strong>Mese di scadenza</strong>",
	".year-expiration": "<strong>Anno di scadenza</strong>",
	"#cvv:placeholder": "000",
	".cvv": "<strong>CVC</strong>",
	"#pay-btn": "Paga ora",
	"#payment-success": "<strong>Grazie per il tuo ordine!</strong><br>Riceverai un'e-mail entro pochi minuti.<br>Verrai reindirizzato.",
	"#payment-error": "<strong>Errore</strong><br>Il tuo pagamento non è stato elaborato.",
	"#step3 .tl_msgTitle": "Grazie per il tuo ordine!",
	"#step3 .tl_msgText": "Riceverai un'e-mail entro pochi minuti. Verrai reindirizzato.",
	"#step3 .tl_msgTextNoRedirect": "Riceverai un'e-mail entro pochi minuti.",
	"#step4 .tl_msgTitle": "Errore",
	"#step4 .tl_msgText": "Il tuo pagamento non è stato elaborato.",
	"#step5 .tl_msgTitle": "Il pagamento 3D secure non è stato completato. Procedi per saltare questo passaggio?",
	"#skipSecure": "Si",
	"#dontSkipSecure": "No",
	"#step6 .tl_msgTitle": "Transazione in sospeso",
	"#step6 .tl_msgText": "Se la transazione ha esito positivo, riceverai i tuoi dati di accesso.",
	".footer": "<div class=\"container\"><div class=\"row\"><div class=\"col-12 col-md-3 mb-3\"><strong>Di cosa si tratta?</strong><br>Non si tratta di un gioco qualsiasi. Progettato da esperti di giochi, allena la tua mente facendoti divertire allo stesso tempo. Migliora il tuo cervello in modi che non avresti mai creduto possibile!</div><div class=\"col-12 col-md-3 mb-3\"><strong>Quanto costa?</strong><br>Cancellare la tua iscrizione è facile. L'iscrizione ha un periodo di prova di 3 giorni, se l'iscrizione non viene interrotta durante il periodo di prova, ti verranno addebitati {footer-currency} (a seconda del prodotto) ogni 30 giorni fino all'annullamento dell'iscrizione.</div><div class=\"col-12 col-md-3 mb-3\"><strong>Come si vince?</strong><br>Tutti i partecipanti partecipano automaticamente a un sorteggio su un premio. Designeremo un nuovo vincitore per 15.000 partecipanti. Il vincitore sarà contattato direttamente per organizzare la consegna del premio. Se il prodotto è esaurito, il vincitore riceverà un prodotto simile.</div><div class=\"col-12 col-md-3 mb-3\"><strong>Domande?</strong><br>Se hai domande o necessiti di aiuto, siamo pronti ad assisterti a info@creditsupport.info (Supporto in inglese) dalle 10:00 alle 16:00 (ora dell'Europa Centrale), dal lunedì al venerdì.</div></div><style>.footer-terms-links { display: flex; justify-content: center; width: 100%; } .footer-terms-links a { margin: 2px 4px; color: #909090; text-decoration: none;}</style><div class=\"row footer-terms-links-container visible-on-step-2\" style=\"display: none;\"><div class=\"footer-terms-links\"><a href=\"terms/policy.html\" target=\"_blank\">Privacy policy</a><a href=\"terms/terms.html\" target=\"_blank\">Terms &amp; Conditions</a></div></div></div>",
	".tl_terms_links": "<div class=\"terms-links show-on-step-2\" style=\"display: none;\"><a href=\"terms/policy.html\" target=\"_blank\">Privacy policy</a><a href=\"terms/terms.html\" target=\"_blank\">Terms & Conditions</a></div>"
}
