<svg width="40" height="40" viewBox="0 0 40 40" fill="none" xmlns="http://www.w3.org/2000/svg">
<circle cx="20" cy="20" r="20" fill="#444444"/>
<path d="M29.6 9H14C12.6764 9 11.6 10.0963 11.6 11.4444V13.8889H10.4C9.0764 13.8889 8 14.9852 8 16.3333V28.5556C8 29.9037 9.0764 31 10.4 31H17.6C18.9236 31 20 29.9037 20 28.5556H29.6C30.9236 28.5556 32 27.4592 32 26.1111V11.4444C32 10.0963 30.9236 9 29.6 9ZM12.8 16.3333H17.6L17.5964 27.3333H10.4V16.3333H12.8ZM20 26.1111V16.3333C20 14.9852 18.9236 13.8889 17.6 13.8889H14V11.4444H27.2V26.1111H20Z" fill="white"/>
</svg>
