<svg width="40" height="40" viewBox="0 0 40 40" fill="none" xmlns="http://www.w3.org/2000/svg">
<circle cx="20" cy="20" r="20" fill="#444444"/>
<path d="M30.3532 16.2991C30.3103 14.6145 29.6066 13.0132 28.3921 11.8365C27.1776 10.6598 25.5483 10.0008 23.8517 10C22.8681 9.99955 21.8972 10.2211 21.0124 10.6478C20.1276 11.0745 19.352 11.6953 18.7442 12.4634C18.2496 11.8325 17.5593 11.3815 16.7802 11.1802C16.0012 10.9788 15.177 11.0385 14.4356 11.35C13.6943 11.6614 13.0771 12.2072 12.6799 12.9026C12.2828 13.598 12.1278 14.4042 12.2392 15.196C11.4761 15.0589 10.6921 15.0899 9.94241 15.2868C9.19275 15.4836 8.49576 15.8416 7.90068 16.3354C7.30559 16.8291 6.82693 17.4467 6.49851 18.1443C6.17009 18.842 5.99991 19.6027 6 20.3729C5.99977 21.0637 6.13654 21.7477 6.40249 22.386C6.66845 23.0243 7.05838 23.6043 7.55004 24.0929C8.04169 24.5816 8.62543 24.9692 9.26792 25.2338C9.91042 25.4984 10.5991 25.6346 11.2946 25.6349H13.8029L19.9931 32L26.1832 25.6349H29.2302C30.3972 25.6357 31.5239 25.2113 32.3968 24.4421C33.2697 23.673 33.8282 22.6125 33.9664 21.4617C34.1047 20.3108 33.813 19.1496 33.1467 18.1981C32.4804 17.2466 31.4858 16.5709 30.3514 16.2991H30.3532ZM19.9948 29.1093L14.7474 23.8977H18.2457V18.686H21.7439V23.8977H25.2422L19.9948 29.1093Z" fill="white"/>
</svg>
