<svg width="40" height="40" viewBox="0 0 40 40" fill="none" xmlns="http://www.w3.org/2000/svg">
<path fill-rule="evenodd" clip-rule="evenodd" d="M20 40C31.0457 40 40 31.0457 40 20C40 8.95435 31.0457 0 20 0C8.95435 0 0 8.95435 0 20C0 31.0457 8.95435 40 20 40ZM26.02 8.86584L30.6372 8L31.5535 12.3512L29.239 12.7952L26.02 8.86584ZM20.2515 9.9425L22.5659 9.50964L25.7852 13.4279L23.4824 13.8607L20.2515 9.9425ZM14.4946 11.0303L16.8091 10.5752L20.0283 14.5156L17.7256 14.9485L14.4946 11.0303ZM9.8894 11.8961L11.0408 11.6852L14.2598 15.6034L8.50293 16.6802L8.04492 14.5045C7.92383 13.9276 8.05005 13.3289 8.396 12.8398C8.7417 12.3507 9.27881 12.0114 9.8894 11.8961ZM8.50293 16.6802H32V27.78C32 29.0121 30.9543 30 29.6504 30H10.8528C10.2295 30 9.63184 29.7661 9.19116 29.3497C8.75049 28.9335 8.50293 28.3688 8.50293 27.78V16.6802Z" fill="#444444"/>
</svg>
