<svg width="40" height="40" viewBox="0 0 40 40" fill="none" xmlns="http://www.w3.org/2000/svg">
<circle cx="20" cy="20" r="20" fill="#444444"/>
<path d="M25.0983 22.1708C25.9217 20.8185 26.3571 19.2657 26.357 17.6823C26.357 12.8859 22.476 9.00191 17.6785 9C12.8854 9.00143 9 12.8859 9 17.6814C9 22.4726 12.8859 26.3566 17.6814 26.3566C19.3266 26.3566 20.8594 25.8917 22.1694 25.0973L28.0726 31L31 28.0711L25.0983 22.1708ZM17.6804 23.0513C14.7143 23.0441 12.3163 20.6471 12.311 17.6871C12.313 16.2636 12.8794 14.8989 13.8858 13.8923C14.8923 12.8856 16.2569 12.319 17.6804 12.3167C20.6452 12.3244 23.0441 14.7214 23.0503 17.6871C23.0441 20.6437 20.6442 23.0441 17.6804 23.0513Z" fill="white"/>
</svg>
