<svg width="40" height="40" viewBox="0 0 40 40" fill="none" xmlns="http://www.w3.org/2000/svg">
<path d="M20 0C8.972 0 0 8.972 0 20C0 31.028 8.972 40 20 40C31.028 40 40 31.028 40 20C40 8.972 31.028 0 20 0ZM16.002 28.826L8.576 21.416L11.4 18.584L15.998 23.174L26.586 12.586L29.414 15.414L16.002 28.826V28.826Z" fill="#444444"/>
</svg>
